%YAML 1.1
%TAG !u! tag:unity3d.com,2011:
--- !u!1045 &1
EditorBuildSettings:
  m_ObjectHideFlags: 0
  serializedVersion: 2
  m_Scenes:
  - enabled: 1
    path: Assets/Scenes/Menu.unity
    guid: 7a746150da6adc54ab2b33a00e1ee97f
  - enabled: 1
    path: Assets/Scenes/NivelProcedural.unity
    guid: 92e2d8aeeafcd474488ccaf6d8a31abb
  m_configObjects: {}
